[ {
  "uid" : "4e99e0be24ed0757",
  "name" : "should open application page",
  "time" : {
    "start" : 1563260971715,
    "stop" : 1563260975445,
    "duration" : 3730
  },
  "status" : "passed",
  "severity" : "normal"
}, {
  "uid" : "33b14856f2565aa4",
  "name" : "should search for all applications in the marketplace",
  "time" : {
    "start" : 1563260963819,
    "stop" : 1563260966759,
    "duration" : 2940
  },
  "status" : "passed",
  "severity" : "normal"
}, {
  "uid" : "fa52428c7121f4b2",
  "name" : "should search for applications in the marketplace",
  "time" : {
    "start" : 1563260966760,
    "stop" : 1563260966760,
    "duration" : 0
  },
  "status" : "skipped",
  "severity" : "normal"
}, {
  "uid" : "12d8c3d897163ac",
  "name" : "should sort applications in the marketplace by popularity",
  "time" : {
    "start" : 1563260969280,
    "stop" : 1563260971714,
    "duration" : 2434
  },
  "status" : "passed",
  "severity" : "normal"
}, {
  "uid" : "749aa2c80038347d",
  "name" : "should navigate to login page",
  "time" : {
    "start" : 1563260963866,
    "stop" : 1563260976339,
    "duration" : 12473
  },
  "status" : "passed",
  "severity" : "normal"
}, {
  "uid" : "5c8419ceaa7f6325",
  "name" : "should have the right title",
  "time" : {
    "start" : 1563260960708,
    "stop" : 1563260963865,
    "duration" : 3157
  },
  "status" : "passed",
  "severity" : "normal"
}, {
  "uid" : "4a3b6d43408cc6b5",
  "name" : "should filter free applications in the marketplace",
  "time" : {
    "start" : 1563260966761,
    "stop" : 1563260969280,
    "duration" : 2519
  },
  "status" : "passed",
  "severity" : "normal"
}, {
  "uid" : "685e78615f6e9b5e",
  "name" : "\"after all\" hook",
  "time" : {
    "start" : 1563260975447,
    "stop" : 1563260975500,
    "duration" : 53
  },
  "status" : "passed",
  "severity" : "normal"
}, {
  "uid" : "70da988c1af311c5",
  "name" : "should navigate to demo page",
  "time" : {
    "start" : 1563260976340,
    "stop" : 1563260982483,
    "duration" : 6143
  },
  "status" : "passed",
  "severity" : "normal"
}, {
  "uid" : "139755d39c3885d4",
  "name" : "\"after all\" hook",
  "time" : {
    "start" : 1563260986404,
    "stop" : 1563260986457,
    "duration" : 53
  },
  "status" : "passed",
  "severity" : "normal"
}, {
  "uid" : "d7a1f475f5abf391",
  "name" : "should search from the main page",
  "time" : {
    "start" : 1563260982484,
    "stop" : 1563260986403,
    "duration" : 3919
  },
  "status" : "passed",
  "severity" : "normal"
}, {
  "uid" : "1014e379f2468bee",
  "name" : "should open the main marketplace website",
  "time" : {
    "start" : 1563260960717,
    "stop" : 1563260963819,
    "duration" : 3102
  },
  "status" : "passed",
  "severity" : "normal"
} ]