{
  "total" : 2,
  "items" : [ {
    "uid" : "20b57b4496b782084a0197a698381c66",
    "name" : "AppDirect Market Place Page",
    "statistic" : {
      "failed" : 0,
      "broken" : 0,
      "skipped" : 1,
      "passed" : 6,
      "unknown" : 0,
      "total" : 7
    }
  }, {
    "uid" : "aa8d89c6010f31a4c0b3fffc6d9db5f6",
    "name" : "AppDirect Main Page",
    "statistic" : {
      "failed" : 0,
      "broken" : 0,
      "skipped" : 0,
      "passed" : 5,
      "unknown" : 0,
      "total" : 5
    }
  } ]
}