{
  "using": "xpath",
  "value": "./option[. = \"Popularity\"]|./option[normalize-space(text()) = \"Popularity\"]|./optgroup/option[. = \"Popularity\"]|./optgroup/option[normalize-space(text()) = \"Popularity\"]"
}